{"code": 0, "msg": "", "data": {"list": [{"trackId": "399608199", "appId": "399608199", "artworkUrl60": "https://is5-ssl.mzstatic.com/image/thumb/Purple122/v4/d0/b0/d9/d0b0d9d4-34c1-2839-5bab-a7aad7dad945/AppIcon-1x_U007emarketing-0-7-0-0-85-220.png/200x200bb.jpg", "sellerName": "中国银行股份有限公司", "trackName": "中国银行", "artistName": "中国银行股份有限公司", "userRatingCount": "50216", "price": "0.00", "status": "1", "genreIds": "6015", "genreIds1": "6015", "genresName": "财务", "brand": "免费", "release_time": "1288800865", "currentVersionReleaseTime": 1667152637, "rankAll": {"update_time": "今天 17:46", "ranking": 94}, "rankGenres": {"update_time": "今天 18:16", "ranking": 6}, "asoIndex": 14621, "asoTrend": -9, "keywordCount": 3069, "country": "cn", "priceStr": "0.00", "brandType": "free", "releaseDate": "2010-11-04", "currentVersionReleaseDate": "2022-10-31", "statusStr": "在线", "mainCountry": ["mo", "hk", "tw", "nz", "sg", "gb", "cn"], "showDate": "2022-10-31"}, {"trackId": "1616135591", "appId": "1616135591", "artworkUrl60": "https://is3-ssl.mzstatic.com/image/thumb/Purple112/v4/4f/96/d1/4f96d1b5-71ce-3db3-20c4-91cb30c78936/AppIcon-1x_U007emarketing-0-6-0-0-85-220.png/200x200bb.jpg", "sellerName": "中国银行股份有限公司", "trackName": "惠如愿", "artistName": "中国银行股份有限公司", "userRatingCount": "15", "price": "0.00", "status": "1", "genreIds": "6015", "genreIds1": "6015", "genresName": "财务", "brand": "免费", "release_time": "1657090800", "currentVersionReleaseTime": 1667029645, "rankAll": {"update_time": "今天 17:46", "ranking": 0, "unknow": 1}, "rankGenres": {"update_time": "今天 18:16", "ranking": 497}, "asoIndex": 1055, "asoTrend": 0, "keywordCount": 381, "country": "cn", "priceStr": "0.00", "brandType": "free", "releaseDate": "2022-07-06", "currentVersionReleaseDate": "2022-10-29", "statusOrder": 2, "statusStr": "在线", "mainCountry": [], "showDate": "2022-10-29"}, {"trackId": "1520164263", "appId": "1520164263", "artworkUrl60": "https://is5-ssl.mzstatic.com/image/thumb/Purple122/v4/7e/8d/c1/7e8dc1bd-cb73-337d-88d5-2099f2a75c0c/AppIcon-0-0-1x_U007emarketing-0-0-0-5-0-0-sRGB-0-0-0-GLES2_U002c0-512MB-85-220-0-0.png/200x200bb.jpg", "sellerName": "中国银行股份有限公司", "trackName": "中银跨境GO", "artistName": "中国银行股份有限公司", "userRatingCount": "175", "price": "0.00", "status": "1", "genreIds": "6015", "genreIds1": "6015", "genresName": "财务", "brand": "免费", "release_time": "1625382000", "currentVersionReleaseTime": 1667494509, "rankAll": {"update_time": "今天 17:46", "ranking": 0, "unknow": 1}, "rankGenres": {"update_time": "今天 18:16", "ranking": 77}, "asoIndex": 1239, "asoTrend": 1, "keywordCount": 2155, "country": "cn", "priceStr": "0.00", "brandType": "free", "releaseDate": "2021-07-04", "currentVersionReleaseDate": "2022-11-04", "statusOrder": 2, "statusStr": "在线", "mainCountry": ["mo", "cn"], "showDate": "2022-11-04"}, {"trackId": "1445394486", "appId": "1445394486", "artworkUrl60": "https://is1-ssl.mzstatic.com/image/thumb/Purple112/v4/15/99/dd/1599dd35-22cc-b8fc-1495-5a616aafcb18/AppIcon-1x_U007emarketing-0-6-0-85-220.png/200x200bb.jpg", "sellerName": "中国银行股份有限公司", "trackName": "中行企业银行", "artistName": "中国银行股份有限公司", "userRatingCount": "1281", "price": "0.00", "status": "1", "genreIds": "6015", "genreIds1": "6015", "genresName": "财务", "brand": "免费", "release_time": "1565319337", "currentVersionReleaseTime": 1664035767, "rankAll": {"update_time": "今天 17:46", "ranking": 0, "unknow": 1}, "rankGenres": {"update_time": "今天 18:16", "ranking": 152}, "asoIndex": 1586, "asoTrend": 1, "keywordCount": 2475, "country": "cn", "priceStr": "0.00", "brandType": "free", "releaseDate": "2019-08-09", "currentVersionReleaseDate": "2022-09-25", "statusOrder": 2, "statusStr": "在线", "mainCountry": ["cn"], "showDate": "2022-09-25"}, {"trackId": "1434014277", "appId": "1434014277", "artworkUrl60": "https://is3-ssl.mzstatic.com/image/thumb/Purple122/v4/ae/ef/78/aeef7838-2415-1f51-09c0-07fe4b077eb8/AppIcon-0-0-1x_U007emarketing-0-0-0-4-0-0-sRGB-0-0-0-GLES2_U002c0-512MB-85-220-0-0.png/200x200bb.jpg", "sellerName": "中国银行股份有限公司", "trackName": "复兴壹号", "artistName": "中国银行股份有限公司", "userRatingCount": "921", "price": "0.00", "status": "1", "genreIds": "6002", "genreIds1": "6002", "genresName": "工具", "brand": "免费", "release_time": "1537982225", "currentVersionReleaseTime": 1667409891, "rankAll": {"update_time": "今天 17:46", "ranking": 0, "unknow": 1}, "rankGenres": {"update_time": "今天 18:16", "ranking": 0, "unknow": 1}, "asoIndex": 102, "asoTrend": 5, "keywordCount": 663, "country": "cn", "priceStr": "0.00", "brandType": "free", "releaseDate": "2018-09-27", "currentVersionReleaseDate": "2022-11-03", "statusOrder": 2, "statusStr": "在线", "mainCountry": [], "showDate": "2022-11-03"}, {"trackId": "1326721097", "appId": "1326721097", "artworkUrl60": "https://is2-ssl.mzstatic.com/image/thumb/Purple112/v4/03/c2/f0/03c2f0b5-468c-4ae3-0ac0-28d2a64585fc/AppIcon-0-0-1x_U007emarketing-0-0-0-6-0-0-sRGB-0-0-0-GLES2_U002c0-512MB-85-220-0-0.png/200x200bb.jpg", "sellerName": "中国银行股份有限公司", "trackName": "行信", "artistName": "中国银行股份有限公司", "userRatingCount": "1184", "price": "0.00", "status": "1", "genreIds": "6005", "genreIds1": "6005", "genresName": "社交", "brand": "免费", "release_time": "1515165131", "currentVersionReleaseTime": 1665189294, "rankAll": {"update_time": "今天 17:46", "ranking": 0, "unknow": 1}, "rankGenres": {"update_time": "今天 18:00", "ranking": 0, "unknow": 1}, "asoIndex": 150, "asoTrend": -5, "keywordCount": 646, "country": "cn", "priceStr": "0.00", "brandType": "free", "releaseDate": "2018-01-05", "currentVersionReleaseDate": "2022-10-08", "statusOrder": 2, "statusStr": "在线", "mainCountry": [], "showDate": "2022-10-08"}, {"trackId": "1305529985", "appId": "1305529985", "artworkUrl60": "https://is2-ssl.mzstatic.com/image/thumb/Purple122/v4/84/75/8a/84758af5-a883-a3d4-2838-c0a1fc2a0c7f/AppIcon-1x_U007emarketing-0-5-0-sRGB-85-220.png/200x200bb.jpg", "sellerName": "中国银行股份有限公司", "trackName": "对接会助手", "artistName": "中国银行股份有限公司", "userRatingCount": "8", "price": "0.00", "status": "1", "genreIds": "6000", "genreIds1": "6000", "genresName": "商务", "brand": "免费", "release_time": "1510189897", "currentVersionReleaseTime": 1664216677, "rankAll": {"update_time": "今天 17:46", "ranking": 0, "unknow": 1}, "rankGenres": {"update_time": "今天 17:56", "ranking": 0, "unknow": 1}, "asoIndex": 2, "asoTrend": -33, "keywordCount": 47, "country": "cn", "priceStr": "0.00", "brandType": "free", "releaseDate": "2017-11-09", "currentVersionReleaseDate": "2022-09-27", "statusOrder": 2, "statusStr": "在线", "mainCountry": [], "showDate": "2022-09-27"}, {"trackId": "1291663309", "appId": "1291663309", "artworkUrl60": "https://is1-ssl.mzstatic.com/image/thumb/Purple122/v4/ef/e5/80/efe5802c-6ee2-84e7-0e41-07f00f8b9b1a/AppIcon-1x_U007emarketing-0-5-0-0-sRGB-85-220.png/200x200bb.jpg", "sellerName": "中国银行股份有限公司", "trackName": "中银e企赢", "artistName": "中国银行股份有限公司", "userRatingCount": "13", "price": "0.00", "status": "1", "genreIds": "6000", "genreIds1": "6000", "genresName": "商务", "brand": "免费", "release_time": "1507611202", "currentVersionReleaseTime": 1664216458, "rankAll": {"update_time": "今天 17:46", "ranking": 0, "unknow": 1}, "rankGenres": {"update_time": "今天 17:56", "ranking": 0, "unknow": 1}, "asoIndex": 50, "asoTrend": 25, "keywordCount": 575, "country": "cn", "priceStr": "0.00", "brandType": "free", "releaseDate": "2017-10-10", "currentVersionReleaseDate": "2022-09-27", "statusOrder": 2, "statusStr": "在线", "mainCountry": [], "showDate": "2022-09-27"}, {"trackId": "1222286331", "appId": "1222286331", "artworkUrl60": "https://is1-ssl.mzstatic.com/image/thumb/Purple112/v4/71/37/e6/7137e626-8394-3925-fbbf-4546a24c0653/AppIcon-1x_U007emarketing-0-7-0-0-85-220.png/200x200bb.jpg", "sellerName": "中国银行股份有限公司", "trackName": "中银智慧商家", "artistName": "中国银行股份有限公司", "userRatingCount": "45", "price": "0.00", "status": "1", "genreIds": "6015", "genreIds1": "6015", "genresName": "财务", "brand": "免费", "release_time": "1491524581", "currentVersionReleaseTime": 1664248032, "rankAll": {"update_time": "今天 17:46", "ranking": 0, "unknow": 1}, "rankGenres": {"update_time": "今天 18:16", "ranking": 0, "unknow": 1}, "asoIndex": 151, "asoTrend": 21, "keywordCount": 421, "country": "cn", "priceStr": "0.00", "brandType": "free", "releaseDate": "2017-04-07", "currentVersionReleaseDate": "2022-09-27", "statusOrder": 2, "statusStr": "在线", "mainCountry": ["cn"], "showDate": "2022-09-27"}, {"trackId": "1115667877", "appId": "1115667877", "artworkUrl60": "https://is1-ssl.mzstatic.com/image/thumb/Purple112/v4/61/7a/34/617a342e-ab9b-224a-078c-65b1f3f1c423/AppIcon-1x_U007emarketing-0-5-0-0-85-220.png/200x200bb.jpg", "sellerName": "中国银行股份有限公司", "trackName": "中国银行", "artistName": "中国银行股份有限公司", "userRatingCount": "266", "price": "0.00", "status": "1", "genreIds": "6015", "genreIds1": "6015", "genresName": "财务", "brand": "免费", "release_time": "1467249665", "currentVersionReleaseTime": 1664258407, "rankAll": {"update_time": "今天 17:46", "ranking": 0, "unknow": 1}, "rankGenres": {"update_time": "今天 18:16", "ranking": 0, "unknow": 1}, "asoIndex": 323, "asoTrend": 24, "keywordCount": 1204, "country": "cn", "priceStr": "0.00", "brandType": "free", "releaseDate": "2016-06-30", "currentVersionReleaseDate": "2022-09-27", "statusOrder": 2, "statusStr": "在线", "mainCountry": ["mo", "sg", "kh", "cn"], "showDate": "2022-09-27"}, {"trackId": "1117756667", "appId": "1117756667", "artworkUrl60": "https://is1-ssl.mzstatic.com/image/thumb/Purple122/v4/42/ed/b3/42edb399-0d63-9b4c-51ed-cae167e40ef5/AppIcon-1x_U007emarketing-0-5-0-85-220.png/200x200bb.jpg", "sellerName": "中国银行股份有限公司", "trackName": "中行金交所代理", "artistName": "中国银行股份有限公司", "userRatingCount": "17", "price": "0.00", "status": "1", "genreIds": "6002", "genreIds1": "6002", "genresName": "工具", "brand": "免费", "release_time": "1464714260", "currentVersionReleaseTime": 1658162493, "rankAll": {"update_time": "今天 17:46", "ranking": 0, "unknow": 1}, "rankGenres": {"update_time": "今天 18:16", "ranking": 0, "unknow": 1}, "asoIndex": 18, "asoTrend": 0, "keywordCount": 121, "country": "cn", "priceStr": "0.00", "brandType": "free", "releaseDate": "2016-06-01", "currentVersionReleaseDate": "2022-07-19", "statusOrder": 2, "statusStr": "在线", "mainCountry": [], "showDate": "2022-07-19"}, {"trackId": "1078816866", "appId": "1078816866", "artworkUrl60": "https://is2-ssl.mzstatic.com/image/thumb/Purple112/v4/f2/2e/13/f22e1361-7bce-8214-c0d4-d996a9df9789/AppIcon-1x_U007emarketing-0-5-0-0-85-220.png/200x200bb.jpg", "sellerName": "中国银行股份有限公司", "trackName": "E融汇", "artistName": "中国银行股份有限公司", "userRatingCount": "169", "price": "0.00", "status": "1", "genreIds": "6015", "genreIds1": "6015", "genresName": "财务", "brand": "免费", "release_time": "1454401943", "currentVersionReleaseTime": 1667322175, "rankAll": {"update_time": "今天 17:46", "ranking": 0, "unknow": 1}, "rankGenres": {"update_time": "今天 18:16", "ranking": 0, "unknow": 1}, "asoIndex": 33, "asoTrend": 0, "keywordCount": 1279, "country": "cn", "priceStr": "0.00", "brandType": "free", "releaseDate": "2016-02-02", "currentVersionReleaseDate": "2022-11-02", "statusOrder": 2, "statusStr": "在线", "mainCountry": [], "showDate": "2022-11-02"}, {"trackId": "1436814938", "appId": "1436814938", "artworkUrl60": "https://is3-ssl.mzstatic.com/image/thumb/Purple123/v4/49/3b/c3/493bc349-3319-56cd-2bd2-d29d6c2f1737/source/200x200bb.jpg", "sellerName": "中国银行股份有限公司", "trackName": "成交统计", "artistName": "中国银行股份有限公司", "userRatingCount": "10", "price": "0.00", "status": "0", "genreIds": "6000", "genreIds1": "6000", "genresName": "商务", "brand": "免费", "release_time": "1538063854", "currentVersionReleaseTime": 1572166544, "rankAll": {"update_time": "今天 17:46", "ranking": 0, "unknow": 1}, "rankGenres": {"update_time": "今天 17:56", "ranking": 0, "unknow": 1}, "country": "cn", "priceStr": "0.00", "brandType": "free", "releaseDate": "2018-09-27", "currentVersionReleaseDate": "2019-10-27", "statusOrder": 3, "statusStr": "下架", "mainCountry": [], "showDate": "2019-11-18", "showTime": 1574064826}, {"trackId": "1364261594", "appId": "1364261594", "artworkUrl60": "https://is2-ssl.mzstatic.com/image/thumb/Purple123/v4/f1/9f/33/f19f3334-a579-48e1-11de-73ae2ca4f783/source/200x200bb.jpg", "sellerName": "中国银行股份有限公司", "trackName": "中银E校园", "artistName": "中国银行股份有限公司", "userRatingCount": "39", "price": "0.00", "status": "0", "genreIds": "6000", "genreIds1": "6000", "genresName": "商务", "brand": "免费", "release_time": "1523154998", "currentVersionReleaseTime": 1576143026, "rankAll": {"update_time": "今天 17:46", "ranking": 0, "unknow": 1}, "rankGenres": {"update_time": "今天 17:56", "ranking": 0, "unknow": 1}, "country": "cn", "priceStr": "0.00", "brandType": "free", "releaseDate": "2018-04-08", "currentVersionReleaseDate": "2019-12-12", "statusOrder": 3, "statusStr": "下架", "mainCountry": [], "showDate": "2019-12-24", "showTime": 1577153372}, {"trackId": "1338647790", "appId": "1338647790", "artworkUrl60": "https://is2-ssl.mzstatic.com/image/thumb/Purple123/v4/05/e7/69/05e769de-6428-c07a-6a5a-8d4121c7ac2a/source/200x200bb.jpg", "sellerName": "中国银行股份有限公司", "trackName": "BOC SG eWallet", "artistName": "中国银行股份有限公司", "userRatingCount": "5", "price": "0.00", "status": "0", "genreIds": "6015", "genreIds1": "6015", "genresName": "财务", "brand": "免费", "release_time": "1518314643", "currentVersionReleaseTime": 1566873828, "rankAll": {"update_time": "今天 17:46", "ranking": 0, "unknow": 1}, "rankGenres": {"update_time": "今天 18:16", "ranking": 0, "unknow": 1}, "country": "cn", "priceStr": "0.00", "brandType": "free", "releaseDate": "2018-02-11", "currentVersionReleaseDate": "2019-08-27", "statusOrder": 3, "statusStr": "下架", "mainCountry": [], "showDate": "2020-01-31", "showTime": 1580444525}, {"trackId": "1328238187", "appId": "1328238187", "artworkUrl60": "https://is1-ssl.mzstatic.com/image/thumb/Purple113/v4/1a/d8/40/1ad8405c-f34e-321a-e486-4755b8dbe831/source/200x200bb.jpg", "sellerName": "中国银行股份有限公司", "trackName": "中银代发星", "artistName": "中国银行股份有限公司", "userRatingCount": "33", "price": "0.00", "status": "0", "genreIds": "6000", "genreIds1": "6000", "genresName": "商务", "brand": "免费", "release_time": "1516671241", "currentVersionReleaseTime": 1575592374, "rankAll": {"update_time": "今天 17:46", "ranking": 0, "unknow": 1}, "rankGenres": {"update_time": "今天 17:56", "ranking": 0, "unknow": 1}, "country": "cn", "priceStr": "0.00", "brandType": "free", "releaseDate": "2018-01-23", "currentVersionReleaseDate": "2019-12-06", "statusOrder": 3, "statusStr": "下架", "mainCountry": [], "showDate": "2019-12-23", "showTime": 1577074291}, {"trackId": "1239184707", "appId": "1239184707", "artworkUrl60": "https://is1-ssl.mzstatic.com/image/thumb/Purple118/v4/40/3b/72/403b721c-ee29-5342-fba4-ca40bf333f98/source/200x200bb.jpg", "sellerName": "中国银行股份有限公司", "trackName": "复兴壹号", "artistName": "中国银行股份有限公司", "userRatingCount": "344", "price": "0.00", "status": "0", "genreIds": "6002", "genreIds1": "6002", "genresName": "工具", "brand": "免费", "release_time": "1497290293", "currentVersionReleaseTime": 1546192574, "rankAll": {"update_time": "今天 17:46", "ranking": 0, "unknow": 1}, "rankGenres": {"update_time": "今天 18:16", "ranking": 0, "unknow": 1}, "country": "cn", "priceStr": "0.00", "brandType": "free", "releaseDate": "2017-06-13", "currentVersionReleaseDate": "2018-12-31", "statusOrder": 3, "statusStr": "下架", "mainCountry": [], "showDate": "2019-08-09", "showTime": 1565323866}, {"trackId": "1231386077", "appId": "1231386077", "artworkUrl60": "https://is4-ssl.mzstatic.com/image/thumb/Purple114/v4/ba/64/55/ba645550-3921-551b-8b95-378b00d8166e/source/200x200bb.jpg", "sellerName": "中国银行股份有限公司", "trackName": "中银来聚财", "artistName": "中国银行股份有限公司", "userRatingCount": "598", "price": "0.00", "status": "0", "genreIds": "6012", "genreIds1": "6012", "genresName": "生活", "brand": "免费", "release_time": "1494365413", "currentVersionReleaseTime": 1607447107, "rankAll": {"update_time": "今天 17:46", "ranking": 0, "unknow": 1}, "rankGenres": {"update_time": "今天 18:26", "ranking": 0, "unknow": 1}, "country": "cn", "priceStr": "0.00", "brandType": "free", "releaseDate": "2017-05-10", "currentVersionReleaseDate": "2020-12-09", "statusOrder": 3, "statusStr": "下架", "mainCountry": [], "showDate": "2022-01-14", "showTime": 1642144111}, {"trackId": "1195500623", "appId": "1195500623", "artworkUrl60": "https://is3-ssl.mzstatic.com/image/thumb/Purple128/v4/52/fd/b1/52fdb10c-d3ef-66dc-d0e9-734f2e450cfc/source/200x200bb.jpg", "sellerName": "中国银行股份有限公司", "trackName": "E融汇企业版", "artistName": "中国银行股份有限公司", "userRatingCount": "1", "price": "0.00", "status": "0", "genreIds": "6015", "genreIds1": "6015", "genresName": "财务", "brand": "免费", "release_time": "1491789165", "currentVersionReleaseTime": 1502650143, "rankAll": {"update_time": "今天 17:46", "ranking": 0, "unknow": 1}, "rankGenres": {"update_time": "今天 18:16", "ranking": 0, "unknow": 1}, "country": "cn", "priceStr": "0.00", "brandType": "free", "releaseDate": "2017-04-10", "currentVersionReleaseDate": "2017-08-14", "statusOrder": 3, "statusStr": "下架", "mainCountry": [], "showDate": "2020-04-24", "showTime": 1587730001}, {"trackId": "1208035584", "appId": "1208035584", "artworkUrl60": "https://is2-ssl.mzstatic.com/image/thumb/Purple118/v4/7e/9d/93/7e9d9315-d9e4-38ab-e83b-2ea929feef52/source/200x200bb.jpg", "sellerName": "中国银行股份有限公司", "trackName": "e社区物管通", "artistName": "中国银行股份有限公司", "userRatingCount": "0", "price": "0.00", "status": "0", "genreIds": "6000", "genreIds1": "6000", "genresName": "商务", "brand": "免费", "release_time": "1488418641", "currentVersionReleaseTime": 1502647760, "rankAll": {"update_time": "今天 17:46", "ranking": 0, "unknow": 1}, "rankGenres": {"update_time": "今天 17:56", "ranking": 0, "unknow": 1}, "country": "cn", "priceStr": "0.00", "brandType": "free", "releaseDate": "2017-03-02", "currentVersionReleaseDate": "2017-08-14", "statusOrder": 3, "statusStr": "下架", "mainCountry": [], "showDate": "2019-12-24", "showTime": 1577153215}], "pageInfo": {"page": "1", "pageSize": "20", "totalCount": 63, "totalPage": 4}}}